MODULE YSonMappers;

	IMPORT
		YSonModels;
	
	CONST
		err* = {3};
		
	TYPE
		Mapper* = RECORD
			base-: YSonModels.Holder;
			this-: YSonModels.Value;
		END;
	
	PROCEDURE (VAR m: Mapper) ConnectTo* (json: YSonModels.Value), NEW;
	BEGIN
		ASSERT(json#NIL, 20);
		WITH json: YSonModels.Holder DO
			m.base:=json;
			m.this:=NIL;
		ELSE HALT(100) END;
	END ConnectTo;
	
	PROCEDURE (VAR m: Mapper) Up*(): BOOLEAN, NEW;
		VAR v: YSonModels.Value;
	BEGIN
		ASSERT(m.base#NIL, 20);
		v:=m.base.Owner();
		IF v#NIL THEN m.ConnectTo(v) END;
	RETURN v#NIL
	END Up;
	
	PROCEDURE (VAR m: Mapper) Select* (IN name: ARRAY OF CHAR): BOOLEAN, NEW;
		VAR root: YSonModels.Holder;
	BEGIN
		ASSERT(m.base#NIL, 20); 
		root:=m.base; m.this:=NIL;
		WITH root: YSonModels.Object DO
			m.this:=root.Find(name$);
		ELSE HALT(100) END;
	RETURN m.this#NIL
	END Select;
	
	PROCEDURE (VAR m: Mapper) This* (idx: INTEGER), NEW;
		VAR a: YSonModels.Holder;
	BEGIN
		ASSERT(m.base#NIL, 20); 
		a:=m.base;
		WITH a: YSonModels.Array DO
			ASSERT(idx<a.NofVal(), 40);
			m.this:=a.Get(idx);
		ELSE HALT(100) END;
	END This;
	
	PROCEDURE (VAR m: Mapper) GetString* (VAR val: ARRAY OF CHAR), NEW;
		VAR v: YSonModels.Value; p: POINTER TO ARRAY OF CHAR;
	BEGIN
		ASSERT(m.this#NIL, 20);
		val:=''; v:=m.this;
		WITH v: YSonModels.String DO
			p:=v.Get()
		ELSE HALT(100) END;
		IF p#NIL THEN
			val:=p$;
		END;
	END GetString;
	
	PROCEDURE (VAR m: Mapper) GetInt* (VAR val: LONGINT), NEW;
		VAR v: YSonModels.Value; 
	BEGIN
		ASSERT(m.this#NIL, 20);
		val:=-1;
		v:=m.this;
		WITH v: YSonModels.Number DO
			val:=v.GetInt();
		ELSE HALT(100) END;
	END GetInt;
	
	PROCEDURE (VAR m: Mapper) GetLiteral* (): SET, NEW;
		VAR v: YSonModels.Value; val: SET;
	BEGIN
		ASSERT(m.this#NIL, 20);
		val:={3};
		v:=m.this;
		WITH v: YSonModels.Literal DO
			val:=v.Get();
		ELSE HALT(100) END;
	RETURN val;
	END GetLiteral;
	
END YSonMappers.